…
```r
# tibble是tidyverse的dataframe，是dataframe的超集
data = as_tibble(iris)
data
```

```
## # A tibble: 150 × 5
##    Sepal.Length Sepal.Width Petal.Length Petal.Width Species
##           <dbl>       <dbl>        <dbl>       <dbl> <fct>  
##  1          5.1         3.5          1.4         0.2 setosa 
##  2          4.9         3            1.4         0.2 setosa 
##  3          4.7         3.2          1.3         0.2 setosa 
##  4          4.6         3.1          1.5         0.2 setosa 
##  5          5           3.6          1.4         0.2 setosa 
##  6          5.4         3.9          1.7         0.4 setosa 
##  7          4.6         3.4          1.4         0.3 setosa 
##  8          5           3.4          1.5         0.2 setosa 
##  9          4.4         2.9          1.4         0.2 setosa 
## 10          4.9         3.1          1.5         0.1 setosa 
## # ℹ 140 more rows
```
…
## select的使用

select的作用是选择一列或多列


```r
data %>% 
  select(Species)
```

```
## # A tibble: 150 × 1
##    Species
##    <fct>  
##  1 setosa 
##  2 setosa 
##  3 setosa 
##  4 setosa 
##  5 setosa 
##  6 setosa 
##  7 setosa 
##  8 setosa 
##  9 setosa 
## 10 setosa 
## # ℹ 140 more rows
```
…
```
## # A tibble: 150 × 4
##    Sepal.Length Sepal.Width Petal.Length Petal.Width
##           <dbl>       <dbl>        <dbl>       <dbl>
##  1          5.1         3.5          1.4         0.2
##  2          4.9         3            1.4         0.2
##  3          4.7         3.2          1.3         0.2
##  4          4.6         3.1          1.5         0.2
##  5          5           3.6          1.4         0.2
##  6          5.4         3.9          1.7         0.4
##  7          4.6         3.4          1.4         0.3
##  8          5           3.4          1.5         0.2
##  9          4.4         2.9          1.4         0.2
## 10          4.9         3.1          1.5         0.1
## # ℹ 140 more rows
```

如果我们想正确的查找一个变量内的若干列,应该用all_of等函数括起来。

```r
data %>% 
  select(all_of(features))
```

```
## # A tibble: 150 × 4
##    Sepal.Length Sepal.Width Petal.Length Petal.Width
##           <dbl>       <dbl>        <dbl>       <dbl>
##  1          5.1         3.5          1.4         0.2
##  2          4.9         3            1.4         0.2
##  3          4.7         3.2          1.3         0.2
##  4          4.6         3.1          1.5         0.2
##  5          5           3.6          1.4         0.2
##  6          5.4         3.9          1.7         0.4
##  7          4.6         3.4          1.4         0.3
##  8          5           3.4          1.5         0.2
##  9          4.4         2.9          1.4         0.2
## 10          4.9         3.1          1.5         0.1
## # ℹ 140 more rows
```
…
where、contains是dplyr里的函数,其作用是用于选择列，对列做判断,这些函数只能在select起作用。
下文中提到的across是一种特殊的select，所以也可以在里面用,这里只简单介绍where。


```r
data %>% 
  select(where(is.numeric))
```

```
## # A tibble: 150 × 4
##    Sepal.Length Sepal.Width Petal.Length Petal.Width
##           <dbl>       <dbl>        <dbl>       <dbl>
##  1          5.1         3.5          1.4         0.2
##  2          4.9         3            1.4         0.2
##  3          4.7         3.2          1.3         0.2
##  4          4.6         3.1          1.5         0.2
##  5          5           3.6          1.4         0.2
##  6          5.4         3.9          1.7         0.4
##  7          4.6         3.4          1.4         0.3
##  8          5           3.4          1.5         0.2
##  9          4.4         2.9          1.4         0.2
## 10          4.9         3.1          1.5         0.1
## # ℹ 140 more rows
```
…
```
## [1] FALSE FALSE  TRUE
```

同时在select中可以用-来删除列,以下方法可以用于删除列。

```r
data %>% 
  select(-Species)
```

```
## # A tibble: 150 × 4
##    Sepal.Length Sepal.Width Petal.Length Petal.Width
##           <dbl>       <dbl>        <dbl>       <dbl>
##  1          5.1         3.5          1.4         0.2
##  2          4.9         3            1.4         0.2
##  3          4.7         3.2          1.3         0.2
##  4          4.6         3.1          1.5         0.2
##  5          5           3.6          1.4         0.2
##  6          5.4         3.9          1.7         0.4
##  7          4.6         3.4          1.4         0.3
##  8          5           3.4          1.5         0.2
##  9          4.4         2.9          1.4         0.2
## 10          4.9         3.1          1.5         0.1
## # ℹ 140 more rows
```

```r
data %>% 
  select(!Species)
```

```
## # A tibble: 150 × 4
##    Sepal.Length Sepal.Width Petal.Length Petal.Width
##           <dbl>       <dbl>        <dbl>       <dbl>
##  1          5.1         3.5          1.4         0.2
##  2          4.9         3            1.4         0.2
##  3          4.7         3.2          1.3         0.2
##  4          4.6         3.1          1.5         0.2
##  5          5           3.6          1.4         0.2
##  6          5.4         3.9          1.7         0.4
##  7          4.6         3.4          1.4         0.3
##  8          5           3.4          1.5         0.2
##  9          4.4         2.9          1.4         0.2
## 10          4.9         3.1          1.5         0.1
## # ℹ 140 more rows
```

```r
data %>% 
  select(-where(is.numeric))
```

```
## # A tibble: 150 × 1
##    Species
##    <fct>  
##  1 setosa 
##  2 setosa 
##  3 setosa 
##  4 setosa 
##  5 setosa 
##  6 setosa 
##  7 setosa 
##  8 setosa 
##  9 setosa 
## 10 setosa 
## # ℹ 140 more rows
```

```r
data %>% 
  select(!where(is.numeric))
```

```
## # A tibble: 150 × 1
##    Species
##    <fct>  
##  1 setosa 
##  2 setosa 
##  3 setosa 
##  4 setosa 
##  5 setosa 
##  6 setosa 
##  7 setosa 
##  8 setosa 
##  9 setosa 
## 10 setosa 
## # ℹ 140 more rows
```

select还支持一些其它的索引方法。

数字索引


```r
data %>% 
  select(1:4)
```

```
## # A tibble: 150 × 4
##    Sepal.Length Sepal.Width Petal.Length Petal.Width
##           <dbl>       <dbl>        <dbl>       <dbl>
##  1          5.1         3.5          1.4         0.2
##  2          4.9         3            1.4         0.2
##  3          4.7         3.2          1.3         0.2
##  4          4.6         3.1          1.5         0.2
##  5          5           3.6          1.4         0.2
##  6          5.4         3.9          1.7         0.4
##  7          4.6         3.4          1.4         0.3
##  8          5           3.4          1.5         0.2
##  9          4.4         2.9          1.4         0.2
## 10          4.9         3.1          1.5         0.1
## # ℹ 140 more rows
```

行名顺序索引


```r
data %>% 
  select(Sepal.Length:Petal.Width)
```

```
## # A tibble: 150 × 4
##    Sepal.Length Sepal.Width Petal.Length Petal.Width
##           <dbl>       <dbl>        <dbl>       <dbl>
##  1          5.1         3.5          1.4         0.2
##  2          4.9         3            1.4         0.2
##  3          4.7         3.2          1.3         0.2
##  4          4.6         3.1          1.5         0.2
##  5          5           3.6          1.4         0.2
##  6          5.4         3.9          1.7         0.4
##  7          4.6         3.4          1.4         0.3
##  8          5           3.4          1.5         0.2
##  9          4.4         2.9          1.4         0.2
## 10          4.9         3.1          1.5         0.1
## # ℹ 140 more rows
```

有的时候我们想什么都不做,everything可以用来调换列的位置，书中有详解。


```r
data %>% 
  select(everything())
```

```
## # A tibble: 150 × 5
##    Sepal.Length Sepal.Width Petal.Length Petal.Width Species
##           <dbl>       <dbl>        <dbl>       <dbl> <fct>  
##  1          5.1         3.5          1.4         0.2 setosa 
##  2          4.9         3            1.4         0.2 setosa 
##  3          4.7         3.2          1.3         0.2 setosa 
##  4          4.6         3.1          1.5         0.2 setosa 
##  5          5           3.6          1.4         0.2 setosa 
##  6          5.4         3.9          1.7         0.4 setosa 
##  7          4.6         3.4          1.4         0.3 setosa 
##  8          5           3.4          1.5         0.2 setosa 
##  9          4.4         2.9          1.4         0.2 setosa 
## 10          4.9         3.1          1.5         0.1 setosa 
## # ℹ 140 more rows
```

## mutate的使用

mutate是对列进行增改的函数


```r
# 增添
data %>% 
  mutate(new = 1)
```

```
## # A tibble: 150 × 6
##    Sepal.Length Sepal.Width Petal.Length Petal.Width Species   new
##           <dbl>       <dbl>        <dbl>       <dbl> <fct>   <dbl>
##  1          5.1         3.5          1.4         0.2 setosa      1
##  2          4.9         3            1.4         0.2 setosa      1
##  3          4.7         3.2          1.3         0.2 setosa      1
##  4          4.6         3.1          1.5         0.2 setosa      1
##  5          5           3.6          1.4         0.2 setosa      1
##  6          5.4         3.9          1.7         0.4 setosa      1
##  7          4.6         3.4          1.4         0.3 setosa      1
##  8          5           3.4          1.5         0.2 setosa      1
##  9          4.4         2.9          1.4         0.2 setosa      1
## 10          4.9         3.1          1.5         0.1 setosa      1
## # ℹ 140 more rows
```

```r
# 修改
data %>% 
  mutate(Species = 1)
```

```
## # A tibble: 150 × 5
##    Sepal.Length Sepal.Width Petal.Length Petal.Width Species
##           <dbl>       <dbl>        <dbl>       <dbl>   <dbl>
##  1          5.1         3.5          1.4         0.2       1
##  2          4.9         3            1.4         0.2       1
##  3          4.7         3.2          1.3         0.2       1
##  4          4.6         3.1          1.5         0.2       1
##  5          5           3.6          1.4         0.2       1
##  6          5.4         3.9          1.7         0.4       1
##  7          4.6         3.4          1.4         0.3       1
##  8          5           3.4          1.5         0.2       1
##  9          4.4         2.9          1.4         0.2       1
## 10          4.9         3.1          1.5         0.1       1
## # ℹ 140 more rows
```

```r
# 变换
data %>% 
  mutate(sum = Sepal.Length + Sepal.Width)
```

```
## # A tibble: 150 × 6
##    Sepal.Length Sepal.Width Petal.Length Petal.Width Species   sum
##           <dbl>       <dbl>        <dbl>       <dbl> <fct>   <dbl>
##  1          5.1         3.5          1.4         0.2 setosa    8.6
##  2          4.9         3            1.4         0.2 setosa    7.9
##  3          4.7         3.2          1.3         0.2 setosa    7.9
##  4          4.6         3.1          1.5         0.2 setosa    7.7
##  5          5           3.6          1.4         0.2 setosa    8.6
##  6          5.4         3.9          1.7         0.4 setosa    9.3
##  7          4.6         3.4          1.4         0.3 setosa    8  
##  8          5           3.4          1.5         0.2 setosa    8.4
##  9          4.4         2.9          1.4         0.2 setosa    7.3
## 10          4.9         3.1          1.5         0.1 setosa    8  
## # ℹ 140 more rows
```

有的时候我们想只修改特定条件下的列,这时候需要借助ifelse进行判断。
ifelse咋用请搜索，?ifelse可以在右下角弹出窗口查阅文档。


```r
data %>% 
  mutate(Sepal.Length_new = ifelse(Species == "setosa", Sepal.Length + 10, Sepal.Length))
```

```
## # A tibble: 150 × 6
##    Sepal.Length Sepal.Width Petal.Length Petal.Width Species Sepal.Length_new
##           <dbl>       <dbl>        <dbl>       <dbl> <fct>              <dbl>
##  1          5.1         3.5          1.4         0.2 setosa              15.1
##  2          4.9         3            1.4         0.2 setosa              14.9
##  3          4.7         3.2          1.3         0.2 setosa              14.7
##  4          4.6         3.1          1.5         0.2 setosa              14.6
##  5          5           3.6          1.4         0.2 setosa              15  
##  6          5.4         3.9          1.7         0.4 setosa              15.4
##  7          4.6         3.4          1.4         0.3 setosa              14.6
##  8          5           3.4          1.5         0.2 setosa              15  
##  9          4.4         2.9          1.4         0.2 setosa              14.4
## 10          4.9         3.1          1.5         0.1 setosa              14.9
## # ℹ 140 more rows
```

有的时候我们相对多列进行相同的操作,难道我们要一个一个写出来吗？


```r
data %>% 
  mutate(Sepal.Length = Sepal.Length ** 2, 
         Sepal.Width = Sepal.Width ** 2, 
         Petal.Length = Petal.Length ** 2, 
         Petal.Width = Petal.Width ** 2)
```

```
## # A tibble: 150 × 5
##    Sepal.Length Sepal.Width Petal.Length Petal.Width Species
##           <dbl>       <dbl>        <dbl>       <dbl> <fct>  
##  1         26.0       12.2          1.96        0.04 setosa 
##  2         24.0        9            1.96        0.04 setosa 
##  3         22.1       10.2          1.69        0.04 setosa 
##  4         21.2        9.61         2.25        0.04 setosa 
##  5         25         13.0          1.96        0.04 setosa 
##  6         29.2       15.2          2.89        0.16 setosa 
##  7         21.2       11.6          1.96        0.09 setosa 
##  8         25         11.6          2.25        0.04 setosa 
##  9         19.4        8.41         1.96        0.04 setosa 
## 10         24.0        9.61         2.25        0.01 setosa 
## # ℹ 140 more rows
```
答案是no,我们应该用across，across相当于在mutate内应用select。

千万注意是where(is.numeric)不是where(is.numeric())，至于为什么就不能加那个括号在example2中有所涉及。

之所以这个函数写法那么怪，在example2中有所涉及。

```r
square = function(vec) vec ** 2

data %>% 
  mutate(across(where(is.numeric), square))
```

```
## # A tibble: 150 × 5
##    Sepal.Length Sepal.Width Petal.Length Petal.Width Species
##           <dbl>       <dbl>        <dbl>       <dbl> <fct>  
##  1         26.0       12.2          1.96        0.04 setosa 
##  2         24.0        9            1.96        0.04 setosa 
##  3         22.1       10.2          1.69        0.04 setosa 
##  4         21.2        9.61         2.25        0.04 setosa 
##  5         25         13.0          1.96        0.04 setosa 
##  6         29.2       15.2          2.89        0.16 setosa 
##  7         21.2       11.6          1.96        0.09 setosa 
##  8         25         11.6          2.25        0.04 setosa 
##  9         19.4        8.41         1.96        0.04 setosa 
## 10         24.0        9.61         2.25        0.01 setosa 
## # ℹ 140 more rows
```

更常见的是匿名函数写法,匿名函数就是没有名字的临时函数,括号里面的是临时变量名，随便起。


```r
data %>% 
  mutate(across(where(is.numeric), function(vec) vec ** 2))
```

```
## # A tibble: 150 × 5
##    Sepal.Length Sepal.Width Petal.Length Petal.Width Species
##           <dbl>       <dbl>        <dbl>       <dbl> <fct>  
##  1         26.0       12.2          1.96        0.04 setosa 
##  2         24.0        9            1.96        0.04 setosa 
##  3         22.1       10.2          1.69        0.04 setosa 
##  4         21.2        9.61         2.25        0.04 setosa 
##  5         25         13.0          1.96        0.04 setosa 
##  6         29.2       15.2          2.89        0.16 setosa 
##  7         21.2       11.6          1.96        0.09 setosa 
##  8         25         11.6          2.25        0.04 setosa 
##  9         19.4        8.41         1.96        0.04 setosa 
## 10         24.0        9.61         2.25        0.01 setosa 
## # ℹ 140 more rows
```

```r
# \()是匿名函数中function()的简写
data %>% 
  mutate(across(where(is.numeric), \(vec) vec ** 2))
```

```
## # A tibble: 150 × 5
##    Sepal.Length Sepal.Width Petal.Length Petal.Width Species
##           <dbl>       <dbl>        <dbl>       <dbl> <fct>  
##  1         26.0       12.2          1.96        0.04 setosa 
##  2         24.0        9            1.96        0.04 setosa 
##  3         22.1       10.2          1.69        0.04 setosa 
##  4         21.2        9.61         2.25        0.04 setosa 
##  5         25         13.0          1.96        0.04 setosa 
##  6         29.2       15.2          2.89        0.16 setosa 
##  7         21.2       11.6          1.96        0.09 setosa 
##  8         25         11.6          2.25        0.04 setosa 
##  9         19.4        8.41         1.96        0.04 setosa 
## 10         24.0        9.61         2.25        0.01 setosa 
## # ℹ 140 more rows
```

~和.x是tidyverse中的新型匿名函数形式,它省略了为变量命名的步骤，认为变量就应该叫.x。

```r
# 等同于\(.x)，写起来简约一些
data %>% 
  mutate(across(where(is.numeric), ~ .x ** 2))
```

```
## # A tibble: 150 × 5
##    Sepal.Length Sepal.Width Petal.Length Petal.Width Species
##           <dbl>       <dbl>        <dbl>       <dbl> <fct>  
##  1         26.0       12.2          1.96        0.04 setosa 
##  2         24.0        9            1.96        0.04 setosa 
##  3         22.1       10.2          1.69        0.04 setosa 
##  4         21.2        9.61         2.25        0.04 setosa 
##  5         25         13.0          1.96        0.04 setosa 
##  6         29.2       15.2          2.89        0.16 setosa 
##  7         21.2       11.6          1.96        0.09 setosa 
##  8         25         11.6          2.25        0.04 setosa 
##  9         19.4        8.41         1.96        0.04 setosa 
## 10         24.0        9.61         2.25        0.01 setosa 
## # ℹ 140 more rows
```

回到上面那个问题，如果我们非想在where里的函数加上括号，也应该用匿名函数。


```r
data %>% 
  mutate(across(where(~ is.numeric(.x)), ~ .x ** 2))
```

```
## # A tibble: 150 × 5
##    Sepal.Length Sepal.Width Petal.Length Petal.Width Species
##           <dbl>       <dbl>        <dbl>       <dbl> <fct>  
##  1         26.0       12.2          1.96        0.04 setosa 
##  2         24.0        9            1.96        0.04 setosa 
##  3         22.1       10.2          1.69        0.04 setosa 
##  4         21.2        9.61         2.25        0.04 setosa 
##  5         25         13.0          1.96        0.04 setosa 
##  6         29.2       15.2          2.89        0.16 setosa 
##  7         21.2       11.6          1.96        0.09 setosa 
##  8         25         11.6          2.25        0.04 setosa 
##  9         19.4        8.41         1.96        0.04 setosa 
## 10         24.0        9.61         2.25        0.01 setosa 
## # ℹ 140 more rows
```

```r
data %>% 
  mutate(across(where(\(.x) is.numeric(.x)), ~ .x ** 2))
```

```
## # A tibble: 150 × 5
##    Sepal.Length Sepal.Width Petal.Length Petal.Width Species
##           <dbl>       <dbl>        <dbl>       <dbl> <fct>  
##  1         26.0       12.2          1.96        0.04 setosa 
##  2         24.0        9            1.96        0.04 setosa 
##  3         22.1       10.2          1.69        0.04 setosa 
##  4         21.2        9.61         2.25        0.04 setosa 
##  5         25         13.0          1.96        0.04 setosa 
##  6         29.2       15.2          2.89        0.16 setosa 
##  7         21.2       11.6          1.96        0.09 setosa 
##  8         25         11.6          2.25        0.04 setosa 
##  9         19.4        8.41         1.96        0.04 setosa 
## 10         24.0        9.61         2.25        0.01 setosa 
## # ℹ 140 more rows
```
…
```
## [1] "Sepal.Length" "Sepal.Width"  "Petal.Length" "Petal.Width"
```

```r
data %>% 
  select(all_of(function_test()))
```

```
## # A tibble: 150 × 4
##    Sepal.Length Sepal.Width Petal.Length Petal.Width
##           <dbl>       <dbl>        <dbl>       <dbl>
##  1          5.1         3.5          1.4         0.2
##  2          4.9         3            1.4         0.2
##  3          4.7         3.2          1.3         0.2
##  4          4.6         3.1          1.5         0.2
##  5          5           3.6          1.4         0.2
##  6          5.4         3.9          1.7         0.4
##  7          4.6         3.4          1.4         0.3
##  8          5           3.4          1.5         0.2
##  9          4.4         2.9          1.4         0.2
## 10          4.9         3.1          1.5         0.1
## # ℹ 140 more rows
```
…
