…
## 实例和小测验


```r
# data_exp = as_tibble(data_train_merged[1:100, ])
# saveRDS(data_exp, "示例数据.Rds")
data_task = readRDS("./data/示例数据.Rds")
data_task
```

```
## # A tibble: 100 × 14
##    A6    A5    A4    A3    A2    A1    G6    G5    G4    G3    G2    G1   
##    <fct> <fct> <fct> <fct> <fct> <fct> <fct> <fct> <fct> <fct> <fct> <fct>
##  1 R     A     Q     L     S     Q     X     A     X     L     S     X    
##  2 A     A     Q     L     S     Q     A     A     X     L     S     X    
##  3 C     A     Q     L     S     Q     S     A     X     L     S     X    
##  4 D     A     Q     L     S     Q     N     A     X     L     S     X    
##  5 E     A     Q     L     S     Q     X     A     X     L     S     X    
##  6 F     A     Q     L     S     Q     F     A     X     L     S     X    
##  7 G     A     Q     L     S     Q     G     A     X     L     S     X    
##  8 H     A     Q     L     S     Q     S     A     X     L     S     X    
##  9 I     A     Q     L     S     Q     I     A     X     L     S     X    
## 10 K     A     Q     L     S     Q     X     A     X     L     S     X    
## # ℹ 90 more rows
## # ℹ 2 more variables: Activity <dbl>, Selectivity <dbl>
```
…
