…
```r
Cattle %>% 
  group_nest(id) %>% 
  mutate(infected = map(data, ~ c(rep(1, .x$infect), rep(0, .x$cattle-.x$infect)))) %>% 
  unnest(data) %>% 
  unnest(infected) %>% 
  select(-infect)
```

```
## # A tibble: 109 × 5
##       id group dfactor cattle infected
##    <int> <int>   <int>  <int>    <dbl>
##  1     1     1       1     11        1
##  2     1     1       1     11        1
##  3     1     1       1     11        1
##  4     1     1       1     11        1
##  5     1     1       1     11        1
##  6     1     1       1     11        1
##  7     1     1       1     11        1
##  8     1     1       1     11        1
##  9     1     1       1     11        0
## 10     1     1       1     11        0
## # ℹ 99 more rows
```
…
