4 R的基础和特征 | R语言高手计划
…
函数式编程是R的另一大特点，也有可能是因R的面向对象太难用了…
简单求个定积分

integrate(\(x) x**3 + x, 0, 1)

## 0.75 with absolute error < 8.3e-15

4.8 实例和小测验

# data_exp = as_tibble(data_train_merged[1:100, ])
# saveRDS(data_exp, "示例数据.Rds")
data_task = readRDS("./data/示例数据.Rds")
data_task

## # A tibble: 100 × 14
##    A6    A5    A4    A3    A2    A1    G6    G5    G4    G3    G2    G1   
##    <fct> <fct> <fct> <fct> <fct> <fct> <fct> <fct> <fct> <fct> <fct> <fct>
##  1 R     A     Q     L     S     Q     X     A     X     L     S     X    
##  2 A     A     Q     L     S     Q     A     A     X     L     S     X    
##  3 C     A     Q     L     S     Q     S     A     X     L     S     X    
##  4 D     A     Q     L     S     Q     N     A     X     L     S     X    
##  5 E     A     Q     L     S     Q     X     A     X     L     S     X    
##  6 F     A     Q     L     S     Q     F     A     X     L     S     X    
##  7 G     A     Q     L     S     Q     G     A     X     L     S     X    
##  8 H     A     Q     L     S     Q     S     A     X     L     S     X    
##  9 I     A     Q     L     S     Q     I     A     X     L     S     X    
## 10 K     A     Q     L     S     Q     X     A     X     L     S     X    
## # ℹ 90 more rows
## # ℹ 2 more variables: Activity <dbl>, Selectivity <dbl>
…
